<svg width="948" height="632" viewBox="0 0 948 632" fill="none" xmlns="http://www.w3.org/2000/svg">
<rect width="948" height="632" fill="#D9D9D9"/>
<path d="M554.523 277.365C532.319 236.119 478.297 220.04 433.89 241.537C389.308 263.034 371.301 314.067 393.504 355.488C410.113 386.597 444.904 403.375 480.045 400.579C478.297 400.754 476.549 400.754 474.8 400.754C428.995 400.754 391.756 363.702 391.756 317.912C391.756 298.862 398.225 281.385 408.889 267.403C411.162 271.423 415.183 278.763 415.008 282.259C414.834 287.152 412.91 292.046 412.036 294.143L410.638 297.464C410.638 297.464 417.631 289.599 425.848 286.628C434.065 283.657 446.653 282.783 453.296 284.181C459.94 285.579 464.485 287.851 466.583 289.599C468.681 291.347 468.856 292.395 468.856 292.395C468.856 292.395 464.66 292.92 462.387 293.619C460.115 294.318 456.093 295.192 453.646 295.192C451.023 295.192 448.576 294.143 448.576 294.143C448.576 294.143 447.352 298.687 451.198 299.91C455.044 301.134 460.115 300.435 465.709 299.211C471.304 297.988 483.017 295.716 489.311 300.784C495.605 305.678 495.081 309.698 494.731 311.795C494.381 313.892 493.332 316.339 493.332 316.339C493.332 316.339 484.94 310.921 473.052 314.067C452.597 319.485 416.232 341.506 416.582 353.216C416.757 361.255 422.351 369.469 432.841 378.208C443.156 387.121 452.947 393.588 462.387 396.209C471.828 398.831 477.073 399.705 481.793 400.054L485.465 400.229C495.255 398.831 504.871 396.035 514.312 391.491C558.544 369.819 576.726 318.786 554.523 277.365Z" fill="#CCCCCC"/>
</svg>
